%YAML 1.1
%TAG !u! tag:unity3d.com,2011:
--- !u!1 &100000
GameObject:
  m_ObjectHideFlags: 0
  m_PrefabParentObject: {fileID: 0}
  m_PrefabInternal: {fileID: 100100000}
  serializedVersion: 4
  m_Component:
  - 4: {fileID: 400000}
  - 95: {fileID: 9500000}
  - 114: {fileID: 11400038}
  - 114: {fileID: 11400036}
  - 114: {fileID: 11400002}
  - 114: {fileID: 11400116}
  - 114: {fileID: 11400008}
  - 143: {fileID: 14300000}
  m_Layer: 9
  m_Name: enemy
  m_TagString: Respawn
  m_Icon: {fileID: 0}
  m_NavMeshLayer: 0
  m_StaticEditorFlags: 0
  m_IsActive: 1
--- !u!1 &100002
GameObject:
  m_ObjectHideFlags: 1
  m_PrefabParentObject: {fileID: 0}
  m_PrefabInternal: {fileID: 100100000}
  serializedVersion: 4
  m_Component:
  - 4: {fileID: 400002}
  m_Layer: 0
  m_Name: Bip01 R Finger1Nub
  m_TagString: Untagged
  m_Icon: {fileID: 0}
  m_NavMeshLayer: 0
  m_StaticEditorFlags: 0
  m_IsActive: 1
--- !u!1 &100004
GameObject:
  m_ObjectHideFlags: 1
  m_PrefabParentObject: {fileID: 0}
  m_PrefabInternal: {fileID: 100100000}
  serializedVersion: 4
  m_Component:
  - 4: {fileID: 400004}
  m_Layer: 0
  m_Name: Bip01 R Finger11
  m_TagString: Untagged
  m_Icon: {fileID: 0}
  m_NavMeshLayer: 0
  m_StaticEditorFlags: 0
  m_IsActive: 1
--- !u!1 &100006
GameObject:
  m_ObjectHideFlags: 1
  m_PrefabParentObject: {fileID: 0}
  m_PrefabInternal: {fileID: 100100000}
  serializedVersion: 4
  m_Component:
  - 4: {fileID: 400010}
  m_Layer: 0
  m_Name: Bip01 R Finger1
  m_TagString: Untagged
  m_Icon: {fileID: 0}
  m_NavMeshLayer: 0
  m_StaticEditorFlags: 0
  m_IsActive: 1
--- !u!1 &100008
GameObject:
  m_ObjectHideFlags: 1
  m_PrefabParentObject: {fileID: 0}
  m_PrefabInternal: {fileID: 100100000}
  serializedVersion: 4
  m_Component:
  - 4: {fileID: 400006}
  m_Layer: 0
  m_Name: Bip01 R Finger0Nub
  m_TagString: Untagged
  m_Icon: {fileID: 0}
  m_NavMeshLayer: 0
  m_StaticEditorFlags: 0
  m_IsActive: 1
--- !u!1 &100010
GameObject:
  m_ObjectHideFlags: 1
  m_PrefabParentObject: {fileID: 0}
  m_PrefabInternal: {fileID: 100100000}
  serializedVersion: 4
  m_Component:
  - 4: {fileID: 400008}
  m_Layer: 0
  m_Name: Bip01 R Finger01
  m_TagString: Untagged
  m_Icon: {fileID: 0}
  m_NavMeshLayer: 0
  m_StaticEditorFlags: 0
  m_IsActive: 1
--- !u!1 &100012
GameObject:
  m_ObjectHideFlags: 1
  m_PrefabParentObject: {fileID: 0}
  m_PrefabInternal: {fileID: 100100000}
  serializedVersion: 4
  m_Component:
  - 4: {fileID: 400012}
  m_Layer: 0
  m_Name: Bip01 R Finger0
  m_TagString: Untagged
  m_Icon: {fileID: 0}
  m_NavMeshLayer: 0
  m_StaticEditorFlags: 0
  m_IsActive: 1
--- !u!1 &100014
GameObject:
  m_ObjectHideFlags: 1
  m_PrefabParentObject: {fileID: 0}
  m_PrefabInternal: {fileID: 100100000}
  serializedVersion: 4
  m_Component:
  - 4: {fileID: 400014}
  m_Layer: 0
  m_Name: Bip01 R Hand
  m_TagString: Untagged
  m_Icon: {fileID: 0}
  m_NavMeshLayer: 0
  m_StaticEditorFlags: 0
  m_IsActive: 1
--- !u!1 &100016
GameObject:
  m_ObjectHideFlags: 1
  m_PrefabParentObject: {fileID: 0}
  m_PrefabInternal: {fileID: 100100000}
  serializedVersion: 4
  m_Component:
  - 4: {fileID: 400016}
  m_Layer: 0
  m_Name: Bip01 R Forearm
  m_TagString: Untagged
  m_Icon: {fileID: 0}
  m_NavMeshLayer: 0
  m_StaticEditorFlags: 0
  m_IsActive: 1
--- !u!1 &100018
GameObject:
  m_ObjectHideFlags: 1
  m_PrefabParentObject: {fileID: 0}
  m_PrefabInternal: {fileID: 100100000}
  serializedVersion: 4
  m_Component:
  - 4: {fileID: 400018}
  m_Layer: 0
  m_Name: Bip01 R UpperArm
  m_TagString: Untagged
  m_Icon: {fileID: 0}
  m_NavMeshLayer: 0
  m_StaticEditorFlags: 0
  m_IsActive: 1
--- !u!1 &100020
GameObject:
  m_ObjectHideFlags: 1
  m_PrefabParentObject: {fileID: 0}
  m_PrefabInternal: {fileID: 100100000}
  serializedVersion: 4
  m_Component:
  - 4: {fileID: 400042}
  m_Layer: 0
  m_Name: Bip01 R Clavicle
  m_TagString: Untagged
  m_Icon: {fileID: 0}
  m_NavMeshLayer: 0
  m_StaticEditorFlags: 0
  m_IsActive: 1
--- !u!1 &100022
GameObject:
  m_ObjectHideFlags: 1
  m_PrefabParentObject: {fileID: 0}
  m_PrefabInternal: {fileID: 100100000}
  serializedVersion: 4
  m_Component:
  - 4: {fileID: 400028}
  - 33: {fileID: 3300000}
  - 23: {fileID: 2300000}
  m_Layer: 0
  m_Name: FIRESPOT
  m_TagString: Untagged
  m_Icon: {fileID: 0}
  m_NavMeshLayer: 0
  m_StaticEditorFlags: 0
  m_IsActive: 1
--- !u!1 &100024
GameObject:
  m_ObjectHideFlags: 1
  m_PrefabParentObject: {fileID: 0}
  m_PrefabInternal: {fileID: 100100000}
  serializedVersion: 4
  m_Component:
  - 4: {fileID: 400020}
  m_Layer: 0
  m_Name: Bip01 L Finger1Nub
  m_TagString: Untagged
  m_Icon: {fileID: 0}
  m_NavMeshLayer: 0
  m_StaticEditorFlags: 0
  m_IsActive: 1
--- !u!1 &100026
GameObject:
  m_ObjectHideFlags: 1
  m_PrefabParentObject: {fileID: 0}
  m_PrefabInternal: {fileID: 100100000}
  serializedVersion: 4
  m_Component:
  - 4: {fileID: 400022}
  m_Layer: 0
  m_Name: Bip01 L Finger11
  m_TagString: Untagged
  m_Icon: {fileID: 0}
  m_NavMeshLayer: 0
  m_StaticEditorFlags: 0
  m_IsActive: 1
--- !u!1 &100028
GameObject:
  m_ObjectHideFlags: 1
  m_PrefabParentObject: {fileID: 0}
  m_PrefabInternal: {fileID: 100100000}
  serializedVersion: 4
  m_Component:
  - 4: {fileID: 400030}
  m_Layer: 0
  m_Name: Bip01 L Finger1
  m_TagString: Untagged
  m_Icon: {fileID: 0}
  m_NavMeshLayer: 0
  m_StaticEditorFlags: 0
  m_IsActive: 1
--- !u!1 &100030
GameObject:
  m_ObjectHideFlags: 1
  m_PrefabParentObject: {fileID: 0}
  m_PrefabInternal: {fileID: 100100000}
  serializedVersion: 4
  m_Component:
  - 4: {fileID: 400024}
  m_Layer: 0
  m_Name: Bip01 L Finger0Nub
  m_TagString: Untagged
  m_Icon: {fileID: 0}
  m_NavMeshLayer: 0
  m_StaticEditorFlags: 0
  m_IsActive: 1
--- !u!1 &100032
GameObject:
  m_ObjectHideFlags: 1
  m_PrefabParentObject: {fileID: 0}
  m_PrefabInternal: {fileID: 100100000}
  serializedVersion: 4
  m_Component:
  - 4: {fileID: 400026}
  m_Layer: 0
  m_Name: Bip01 L Finger01
  m_TagString: Untagged
  m_Icon: {fileID: 0}
  m_NavMeshLayer: 0
  m_StaticEditorFlags: 0
  m_IsActive: 1
--- !u!1 &100034
GameObject:
  m_ObjectHideFlags: 1
  m_PrefabParentObject: {fileID: 0}
  m_PrefabInternal: {fileID: 100100000}
  serializedVersion: 4
  m_Component:
  - 4: {fileID: 400032}
  m_Layer: 0
  m_Name: Bip01 L Finger0
  m_TagString: Untagged
  m_Icon: {fileID: 0}
  m_NavMeshLayer: 0
  m_StaticEditorFlags: 0
  m_IsActive: 1
--- !u!1 &100036
GameObject:
  m_ObjectHideFlags: 1
  m_PrefabParentObject: {fileID: 0}
  m_PrefabInternal: {fileID: 100100000}
  serializedVersion: 4
  m_Component:
  - 4: {fileID: 400034}
  m_Layer: 0
  m_Name: Bip01 L Hand
  m_TagString: Untagged
  m_Icon: {fileID: 0}
  m_NavMeshLayer: 0
  m_StaticEditorFlags: 0
  m_IsActive: 1
--- !u!1 &100038
GameObject:
  m_ObjectHideFlags: 1
  m_PrefabParentObject: {fileID: 0}
  m_PrefabInternal: {fileID: 100100000}
  serializedVersion: 4
  m_Component:
  - 4: {fileID: 400036}
  m_Layer: 0
  m_Name: Bip01 L Forearm
  m_TagString: Untagged
  m_Icon: {fileID: 0}
  m_NavMeshLayer: 0
  m_StaticEditorFlags: 0
  m_IsActive: 1
--- !u!1 &100040
GameObject:
  m_ObjectHideFlags: 1
  m_PrefabParentObject: {fileID: 0}
  m_PrefabInternal: {fileID: 100100000}
  serializedVersion: 4
  m_Component:
  - 4: {fileID: 400038}
  m_Layer: 0
  m_Name: Bip01 L UpperArm
  m_TagString: Untagged
  m_Icon: {fileID: 0}
  m_NavMeshLayer: 0
  m_StaticEditorFlags: 0
  m_IsActive: 1
--- !u!1 &100042
GameObject:
  m_ObjectHideFlags: 1
  m_PrefabParentObject: {fileID: 0}
  m_PrefabInternal: {fileID: 100100000}
  serializedVersion: 4
  m_Component:
  - 4: {fileID: 400044}
  m_Layer: 0
  m_Name: Bip01 L Clavicle
  m_TagString: Untagged
  m_Icon: {fileID: 0}
  m_NavMeshLayer: 0
  m_StaticEditorFlags: 0
  m_IsActive: 1
--- !u!1 &100044
GameObject:
  m_ObjectHideFlags: 1
  m_PrefabParentObject: {fileID: 0}
  m_PrefabInternal: {fileID: 100100000}
  serializedVersion: 4
  m_Component:
  - 4: {fileID: 400040}
  m_Layer: 0
  m_Name: Bip01 HeadNub
  m_TagString: Untagged
  m_Icon: {fileID: 0}
  m_NavMeshLayer: 0
  m_StaticEditorFlags: 0
  m_IsActive: 1
--- !u!1 &100046
GameObject:
  m_ObjectHideFlags: 1
  m_PrefabParentObject: {fileID: 0}
  m_PrefabInternal: {fileID: 100100000}
  serializedVersion: 4
  m_Component:
  - 4: {fileID: 400046}
  m_Layer: 0
  m_Name: Bip01 Head
  m_TagString: Untagged
  m_Icon: {fileID: 0}
  m_NavMeshLayer: 0
  m_StaticEditorFlags: 0
  m_IsActive: 1
--- !u!1 &100048
GameObject:
  m_ObjectHideFlags: 1
  m_PrefabParentObject: {fileID: 0}
  m_PrefabInternal: {fileID: 100100000}
  serializedVersion: 4
  m_Component:
  - 4: {fileID: 400048}
  m_Layer: 0
  m_Name: Bip01 Neck
  m_TagString: Untagged
  m_Icon: {fileID: 0}
  m_NavMeshLayer: 0
  m_StaticEditorFlags: 0
  m_IsActive: 1
--- !u!1 &100050
GameObject:
  m_ObjectHideFlags: 1
  m_PrefabParentObject: {fileID: 0}
  m_PrefabInternal: {fileID: 100100000}
  serializedVersion: 4
  m_Component:
  - 4: {fileID: 400070}
  m_Layer: 0
  m_Name: Bip01 Spine1
  m_TagString: Untagged
  m_Icon: {fileID: 0}
  m_NavMeshLayer: 0
  m_StaticEditorFlags: 0
  m_IsActive: 1
--- !u!1 &100052
GameObject:
  m_ObjectHideFlags: 1
  m_PrefabParentObject: {fileID: 0}
  m_PrefabInternal: {fileID: 100100000}
  serializedVersion: 4
  m_Component:
  - 4: {fileID: 400050}
  m_Layer: 0
  m_Name: Bip01 R Toe0Nub
  m_TagString: Untagged
  m_Icon: {fileID: 0}
  m_NavMeshLayer: 0
  m_StaticEditorFlags: 0
  m_IsActive: 1
--- !u!1 &100054
GameObject:
  m_ObjectHideFlags: 1
  m_PrefabParentObject: {fileID: 0}
  m_PrefabInternal: {fileID: 100100000}
  serializedVersion: 4
  m_Component:
  - 4: {fileID: 400052}
  m_Layer: 0
  m_Name: Bip01 R Toe01
  m_TagString: Untagged
  m_Icon: {fileID: 0}
  m_NavMeshLayer: 0
  m_StaticEditorFlags: 0
  m_IsActive: 1
--- !u!1 &100056
GameObject:
  m_ObjectHideFlags: 1
  m_PrefabParentObject: {fileID: 0}
  m_PrefabInternal: {fileID: 100100000}
  serializedVersion: 4
  m_Component:
  - 4: {fileID: 400054}
  m_Layer: 0
  m_Name: Bip01 R Toe0
  m_TagString: Untagged
  m_Icon: {fileID: 0}
  m_NavMeshLayer: 0
  m_StaticEditorFlags: 0
  m_IsActive: 1
--- !u!1 &100058
GameObject:
  m_ObjectHideFlags: 1
  m_PrefabParentObject: {fileID: 0}
  m_PrefabInternal: {fileID: 100100000}
  serializedVersion: 4
  m_Component:
  - 4: {fileID: 400056}
  m_Layer: 0
  m_Name: Bip01 R Foot
  m_TagString: Untagged
  m_Icon: {fileID: 0}
  m_NavMeshLayer: 0
  m_StaticEditorFlags: 0
  m_IsActive: 1
--- !u!1 &100060
GameObject:
  m_ObjectHideFlags: 1
  m_PrefabParentObject: {fileID: 0}
  m_PrefabInternal: {fileID: 100100000}
  serializedVersion: 4
  m_Component:
  - 4: {fileID: 400058}
  m_Layer: 0
  m_Name: Bip01 R Calf
  m_TagString: Untagged
  m_Icon: {fileID: 0}
  m_NavMeshLayer: 0
  m_StaticEditorFlags: 0
  m_IsActive: 1
--- !u!1 &100062
GameObject:
  m_ObjectHideFlags: 1
  m_PrefabParentObject: {fileID: 0}
  m_PrefabInternal: {fileID: 100100000}
  serializedVersion: 4
  m_Component:
  - 4: {fileID: 400072}
  m_Layer: 0
  m_Name: Bip01 R Thigh
  m_TagString: Untagged
  m_Icon: {fileID: 0}
  m_NavMeshLayer: 0
  m_StaticEditorFlags: 0
  m_IsActive: 1
--- !u!1 &100064
GameObject:
  m_ObjectHideFlags: 1
  m_PrefabParentObject: {fileID: 0}
  m_PrefabInternal: {fileID: 100100000}
  serializedVersion: 4
  m_Component:
  - 4: {fileID: 400060}
  m_Layer: 0
  m_Name: Bip01 L Toe0Nub
  m_TagString: Untagged
  m_Icon: {fileID: 0}
  m_NavMeshLayer: 0
  m_StaticEditorFlags: 0
  m_IsActive: 1
--- !u!1 &100066
GameObject:
  m_ObjectHideFlags: 1
  m_PrefabParentObject: {fileID: 0}
  m_PrefabInternal: {fileID: 100100000}
  serializedVersion: 4
  m_Component:
  - 4: {fileID: 400062}
  m_Layer: 0
  m_Name: Bip01 L Toe01
  m_TagString: Untagged
  m_Icon: {fileID: 0}
  m_NavMeshLayer: 0
  m_StaticEditorFlags: 0
  m_IsActive: 1
--- !u!1 &100068
GameObject:
  m_ObjectHideFlags: 1
  m_PrefabParentObject: {fileID: 0}
  m_PrefabInternal: {fileID: 100100000}
  serializedVersion: 4
  m_Component:
  - 4: {fileID: 400064}
  m_Layer: 0
  m_Name: Bip01 L Toe0
  m_TagString: Untagged
  m_Icon: {fileID: 0}
  m_NavMeshLayer: 0
  m_StaticEditorFlags: 0
  m_IsActive: 1
--- !u!1 &100070
GameObject:
  m_ObjectHideFlags: 1
  m_PrefabParentObject: {fileID: 0}
  m_PrefabInternal: {fileID: 100100000}
  serializedVersion: 4
  m_Component:
  - 4: {fileID: 400066}
  m_Layer: 0
  m_Name: Bip01 L Foot
  m_TagString: Untagged
  m_Icon: {fileID: 0}
  m_NavMeshLayer: 0
  m_StaticEditorFlags: 0
  m_IsActive: 1
--- !u!1 &100072
GameObject:
  m_ObjectHideFlags: 1
  m_PrefabParentObject: {fileID: 0}
  m_PrefabInternal: {fileID: 100100000}
  serializedVersion: 4
  m_Component:
  - 4: {fileID: 400068}
  m_Layer: 0
  m_Name: Bip01 L Calf
  m_TagString: Untagged
  m_Icon: {fileID: 0}
  m_NavMeshLayer: 0
  m_StaticEditorFlags: 0
  m_IsActive: 1
--- !u!1 &100074
GameObject:
  m_ObjectHideFlags: 1
  m_PrefabParentObject: {fileID: 0}
  m_PrefabInternal: {fileID: 100100000}
  serializedVersion: 4
  m_Component:
  - 4: {fileID: 400074}
  m_Layer: 0
  m_Name: Bip01 L Thigh
  m_TagString: Untagged
  m_Icon: {fileID: 0}
  m_NavMeshLayer: 0
  m_StaticEditorFlags: 0
  m_IsActive: 1
--- !u!1 &100076
GameObject:
  m_ObjectHideFlags: 1
  m_PrefabParentObject: {fileID: 0}
  m_PrefabInternal: {fileID: 100100000}
  serializedVersion: 4
  m_Component:
  - 4: {fileID: 400076}
  m_Layer: 0
  m_Name: Bip01 Spine
  m_TagString: Untagged
  m_Icon: {fileID: 0}
  m_NavMeshLayer: 0
  m_StaticEditorFlags: 0
  m_IsActive: 1
--- !u!1 &100078
GameObject:
  m_ObjectHideFlags: 1
  m_PrefabParentObject: {fileID: 0}
  m_PrefabInternal: {fileID: 100100000}
  serializedVersion: 4
  m_Component:
  - 4: {fileID: 400078}
  m_Layer: 0
  m_Name: Bip01 Pelvis
  m_TagString: Untagged
  m_Icon: {fileID: 0}
  m_NavMeshLayer: 0
  m_StaticEditorFlags: 0
  m_IsActive: 1
--- !u!1 &100080
GameObject:
  m_ObjectHideFlags: 1
  m_PrefabParentObject: {fileID: 0}
  m_PrefabInternal: {fileID: 100100000}
  serializedVersion: 4
  m_Component:
  - 4: {fileID: 400080}
  - 137: {fileID: 13700000}
  m_Layer: 0
  m_Name: enemy
  m_TagString: Untagged
  m_Icon: {fileID: 0}
  m_NavMeshLayer: 0
  m_StaticEditorFlags: 0
  m_IsActive: 1
--- !u!1 &100082
GameObject:
  m_ObjectHideFlags: 1
  m_PrefabParentObject: {fileID: 0}
  m_PrefabInternal: {fileID: 100100000}
  serializedVersion: 4
  m_Component:
  - 4: {fileID: 400082}
  m_Layer: 0
  m_Name: Bip01
  m_TagString: Untagged
  m_Icon: {fileID: 0}
  m_NavMeshLayer: 0
  m_StaticEditorFlags: 0
  m_IsActive: 1
--- !u!1 &100084
GameObject:
  m_ObjectHideFlags: 0
  m_PrefabParentObject: {fileID: 0}
  m_PrefabInternal: {fileID: 100100000}
  serializedVersion: 4
  m_Component:
  - 4: {fileID: 400084}
  m_Layer: 0
  m_Name: enemy
  m_TagString: Untagged
  m_Icon: {fileID: 0}
  m_NavMeshLayer: 0
  m_StaticEditorFlags: 0
  m_IsActive: 1
--- !u!1 &100086
GameObject:
  m_ObjectHideFlags: 0
  m_PrefabParentObject: {fileID: 0}
  m_PrefabInternal: {fileID: 100100000}
  serializedVersion: 4
  m_Component:
  - 4: {fileID: 400086}
  - 119: {fileID: 11900000}
  - 114: {fileID: 11400062}
  m_Layer: 0
  m_Name: Visibility_Indicator
  m_TagString: Untagged
  m_Icon: {fileID: 0}
  m_NavMeshLayer: 0
  m_StaticEditorFlags: 0
  m_IsActive: 1
--- !u!1 &100112
GameObject:
  m_ObjectHideFlags: 0
  m_PrefabParentObject: {fileID: 0}
  m_PrefabInternal: {fileID: 100100000}
  serializedVersion: 4
  m_Component:
  - 4: {fileID: 400112}
  - 114: {fileID: 11400032}
  - 114: {fileID: 11400030}
  - 114: {fileID: 11400006}
  - 114: {fileID: 11400024}
  - 114: {fileID: 11400014}
  - 114: {fileID: 11400012}
  - 114: {fileID: 11400018}
  - 114: {fileID: 11400016}
  - 114: {fileID: 11400020}
  - 114: {fileID: 11400050}
  - 114: {fileID: 11400048}
  - 114: {fileID: 11400054}
  - 114: {fileID: 11400000}
  - 114: {fileID: 11400004}
  - 114: {fileID: 11400022}
  - 114: {fileID: 11400026}
  - 114: {fileID: 11400028}
  - 114: {fileID: 11400034}
  - 114: {fileID: 11400052}
  - 114: {fileID: 11400046}
  - 114: {fileID: 11400044}
  - 114: {fileID: 11400058}
  - 114: {fileID: 11400056}
  - 114: {fileID: 11400060}
  m_Layer: 9
  m_Name: States
  m_TagString: Untagged
  m_Icon: {fileID: 0}
  m_NavMeshLayer: 0
  m_StaticEditorFlags: 0
  m_IsActive: 1
--- !u!1 &100116
GameObject:
  m_ObjectHideFlags: 0
  m_PrefabParentObject: {fileID: 0}
  m_PrefabInternal: {fileID: 100100000}
  serializedVersion: 4
  m_Component:
  - 4: {fileID: 400116}
  - 114: {fileID: 11400042}
  - 114: {fileID: 11400040}
  - 114: {fileID: 11400114}
  - 114: {fileID: 11400112}
  - 114: {fileID: 11400010}
  m_Layer: 9
  m_Name: AnimationStates
  m_TagString: Untagged
  m_Icon: {fileID: 0}
  m_NavMeshLayer: 0
  m_StaticEditorFlags: 0
  m_IsActive: 1
--- !u!4 &400000
Transform:
  m_ObjectHideFlags: 1
  m_PrefabParentObject: {fileID: 0}
  m_PrefabInternal: {fileID: 100100000}
  m_GameObject: {fileID: 100000}
  m_LocalRotation: {x: 0, y: 1, z: 0, w: -0.00000004371139}
  m_LocalPosition: {x: 52.783947, y: -0.033491, z: 47.700264}
  m_LocalScale: {x: 1, y: 1, z: 1}
  m_Children:
  - {fileID: 400116}
  - {fileID: 400084}
  - {fileID: 400112}
  - {fileID: 400086}
  m_Father: {fileID: 0}
  m_RootOrder: 0
--- !u!4 &400002
Transform:
  m_ObjectHideFlags: 1
  m_PrefabParentObject: {fileID: 0}
  m_PrefabInternal: {fileID: 100100000}
  m_GameObject: {fileID: 100002}
  m_LocalRotation: {x: -0.0000000037252899, y: -0.000000012427334, z: 1, w: 1.4936918e-17}
  m_LocalPosition: {x: -0.014620132, y: 0.000000009536743, z: 0}
  m_LocalScale: {x: -1.0000001, y: -1.0000001, z: -1.0000001}
  m_Children: []
  m_Father: {fileID: 400004}
  m_RootOrder: 0
--- !u!4 &400004
Transform:
  m_ObjectHideFlags: 1
  m_PrefabParentObject: {fileID: 0}
  m_PrefabInternal: {fileID: 100100000}
  m_GameObject: {fileID: 100004}
  m_LocalRotation: {x: 0.000000012592, y: -0.000000006009445, z: -0.17410812, w: 0.98472655}
  m_LocalPosition: {x: -0.014435501, y: 0.000000019073486, z: 0.000000009536743}
  m_LocalScale: {x: 1, y: 1, z: 1}
  m_Children:
  - {fileID: 400002}
  m_Father: {fileID: 400010}
  m_RootOrder: 0
--- !u!4 &400006
Transform:
  m_ObjectHideFlags: 1
  m_PrefabParentObject: {fileID: 0}
  m_PrefabInternal: {fileID: 100100000}
  m_GameObject: {fileID: 100008}
  m_LocalRotation: {x: -0.000000014901161, y: -0.0000000037252903, z: 1, w: 0.000000007450581}
  m_LocalPosition: {x: -0.020834923, y: 0, z: 0}
  m_LocalScale: {x: -1, y: -1, z: -0.99999994}
  m_Children: []
  m_Father: {fileID: 400008}
  m_RootOrder: 0
--- !u!4 &400008
Transform:
  m_ObjectHideFlags: 1
  m_PrefabParentObject: {fileID: 0}
  m_PrefabInternal: {fileID: 100100000}
  m_GameObject: {fileID: 100010}
  m_LocalRotation: {x: -0.0000000025944131, y: -0.000000014673568, z: -0.17410812,
    w: 0.98472655}
  m_LocalPosition: {x: -0.019284762, y: -0.000000009536743, z: 0.000000009536743}
  m_LocalScale: {x: 1, y: 1.0000001, z: 1}
  m_Children:
  - {fileID: 400006}
  m_Father: {fileID: 400012}
  m_RootOrder: 0
--- !u!4 &400010
Transform:
  m_ObjectHideFlags: 1
  m_PrefabParentObject: {fileID: 0}
  m_PrefabInternal: {fileID: 100100000}
  m_GameObject: {fileID: 100006}
  m_LocalRotation: {x: -0.81117785, y: 0.26625323, z: -0.04167949, w: 0.51900154}
  m_LocalPosition: {x: -0.025582237, y: 0.0073760794, z: 0.017930813}
  m_LocalScale: {x: 1.0000001, y: 1.0000001, z: 1}
  m_Children:
  - {fileID: 400004}
  m_Father: {fileID: 400014}
  m_RootOrder: 1
--- !u!4 &400012
Transform:
  m_ObjectHideFlags: 1
  m_PrefabParentObject: {fileID: 0}
  m_PrefabInternal: {fileID: 100100000}
  m_GameObject: {fileID: 100012}
  m_LocalRotation: {x: 0.00039710524, y: 0.000029103641, z: -0.07302644, w: 0.99732995}
  m_LocalPosition: {x: -0.043373507, y: 0, z: 0.000000009536743}
  m_LocalScale: {x: 1.0000001, y: 1.0000001, z: 1.0000001}
  m_Children:
  - {fileID: 400008}
  m_Father: {fileID: 400014}
  m_RootOrder: 0
--- !u!4 &400014
Transform:
  m_ObjectHideFlags: 1
  m_PrefabParentObject: {fileID: 0}
  m_PrefabInternal: {fileID: 100100000}
  m_GameObject: {fileID: 100014}
  m_LocalRotation: {x: 0.6863169, y: 0.0000000054188276, z: -0.00000000511346, w: 0.7273027}
  m_LocalPosition: {x: -0.10485435, y: 0.000000009536743, z: 0}
  m_LocalScale: {x: 0.9999999, y: 0.99999994, z: 0.99999994}
  m_Children:
  - {fileID: 400012}
  - {fileID: 400010}
  m_Father: {fileID: 400016}
  m_RootOrder: 0
--- !u!4 &400016
Transform:
  m_ObjectHideFlags: 1
  m_PrefabParentObject: {fileID: 0}
  m_PrefabInternal: {fileID: 100100000}
  m_GameObject: {fileID: 100016}
  m_LocalRotation: {x: -0.00000000259456, y: -0.000000015701524, z: 0.19377434, w: 0.98104614}
  m_LocalPosition: {x: -0.12190452, y: 0, z: -0.000000019073486}
  m_LocalScale: {x: 1.0000001, y: 1, z: 1}
  m_Children:
  - {fileID: 400014}
  m_Father: {fileID: 400018}
  m_RootOrder: 0
--- !u!4 &400018
Transform:
  m_ObjectHideFlags: 1
  m_PrefabParentObject: {fileID: 0}
  m_PrefabInternal: {fileID: 100100000}
  m_GameObject: {fileID: 100018}
  m_LocalRotation: {x: -0.071123466, y: 0.55706924, z: -0.03215976, w: 0.8267896}
  m_LocalPosition: {x: -0.06583133, y: 0.0000000047683715, z: 0}
  m_LocalScale: {x: 1.0000001, y: 1.0000002, z: 1.0000002}
  m_Children:
  - {fileID: 400016}
  m_Father: {fileID: 400042}
  m_RootOrder: 0
--- !u!4 &400020
Transform:
  m_ObjectHideFlags: 1
  m_PrefabParentObject: {fileID: 0}
  m_PrefabInternal: {fileID: 100100000}
  m_GameObject: {fileID: 100024}
  m_LocalRotation: {x: -5.529728e-10, y: -0.0000000033760443, z: -1.8668606e-18, w: 1}
  m_LocalPosition: {x: -0.014620132, y: 0, z: 0}
  m_LocalScale: {x: 1, y: 1, z: 1}
  m_Children: []
  m_Father: {fileID: 400022}
  m_RootOrder: 0
--- !u!4 &400022
Transform:
  m_ObjectHideFlags: 1
  m_PrefabParentObject: {fileID: 0}
  m_PrefabInternal: {fileID: 100100000}
  m_GameObject: {fileID: 100026}
  m_LocalRotation: {x: -0.000000028484722, y: 0.000000013075368, z: -0.17410812, w: 0.98472655}
  m_LocalPosition: {x: -0.014435463, y: 0.000000019073486, z: 0.000000009536743}
  m_LocalScale: {x: 1.0000001, y: 1.0000001, z: 1.0000001}
  m_Children:
  - {fileID: 400020}
  m_Father: {fileID: 400030}
  m_RootOrder: 0
--- !u!4 &400024
Transform:
  m_ObjectHideFlags: 1
  m_PrefabParentObject: {fileID: 0}
  m_PrefabInternal: {fileID: 100100000}
  m_GameObject: {fileID: 100030}
  m_LocalRotation: {x: 0, y: -0, z: -0, w: 1}
  m_LocalPosition: {x: -0.020834923, y: 0, z: 0}
  m_LocalScale: {x: 1, y: 1, z: 1.0000001}
  m_Children: []
  m_Father: {fileID: 400026}
  m_RootOrder: 0
--- !u!4 &400026
Transform:
  m_ObjectHideFlags: 1
  m_PrefabParentObject: {fileID: 0}
  m_PrefabInternal: {fileID: 100100000}
  m_GameObject: {fileID: 100032}
  m_LocalRotation: {x: 0.0000000025944134, y: 0.000000014673569, z: -0.17410813, w: 0.98472655}
  m_LocalPosition: {x: -0.019284802, y: -0.000000009536743, z: 0}
  m_LocalScale: {x: 1, y: 1, z: 1}
  m_Children:
  - {fileID: 400024}
  m_Father: {fileID: 400032}
  m_RootOrder: 0
--- !u!4 &400028
Transform:
  m_ObjectHideFlags: 1
  m_PrefabParentObject: {fileID: 0}
  m_PrefabInternal: {fileID: 100100000}
  m_GameObject: {fileID: 100022}
  m_LocalRotation: {x: 0.74523187, y: 0.661476, z: 0.0808755, w: -0.023199407}
  m_LocalPosition: {x: -0.019064482, y: 0.0026817322, z: -0.0020385457}
  m_LocalScale: {x: 0.9999995, y: 1.0000015, z: 0.99999875}
  m_Children: []
  m_Father: {fileID: 400034}
  m_RootOrder: 2
--- !u!4 &400030
Transform:
  m_ObjectHideFlags: 1
  m_PrefabParentObject: {fileID: 0}
  m_PrefabInternal: {fileID: 100100000}
  m_GameObject: {fileID: 100028}
  m_LocalRotation: {x: 0.81117785, y: -0.26625323, z: -0.041679498, w: 0.5190015}
  m_LocalPosition: {x: -0.025582237, y: 0.0073760985, z: -0.017930813}
  m_LocalScale: {x: 1.0000001, y: 1.0000001, z: 1.0000001}
  m_Children:
  - {fileID: 400022}
  m_Father: {fileID: 400034}
  m_RootOrder: 1
--- !u!4 &400032
Transform:
  m_ObjectHideFlags: 1
  m_PrefabParentObject: {fileID: 0}
  m_PrefabInternal: {fileID: 100100000}
  m_GameObject: {fileID: 100034}
  m_LocalRotation: {x: -0.00039710695, y: -0.000029088575, z: -0.07302644, w: 0.99732995}
  m_LocalPosition: {x: -0.043373544, y: 0, z: 0}
  m_LocalScale: {x: 1.0000001, y: 1.0000001, z: 1.0000001}
  m_Children:
  - {fileID: 400026}
  m_Father: {fileID: 400034}
  m_RootOrder: 0
--- !u!4 &400034
Transform:
  m_ObjectHideFlags: 1
  m_PrefabParentObject: {fileID: 0}
  m_PrefabInternal: {fileID: 100100000}
  m_GameObject: {fileID: 100036}
  m_LocalRotation: {x: -0.6863169, y: 0, z: -0, w: 0.7273026}
  m_LocalPosition: {x: -0.10485439, y: 0.000000028610229, z: -0.000000019073486}
  m_LocalScale: {x: 1.0000001, y: 1.0000001, z: 1.0000001}
  m_Children:
  - {fileID: 400032}
  - {fileID: 400030}
  - {fileID: 400028}
  m_Father: {fileID: 400036}
  m_RootOrder: 0
--- !u!4 &400036
Transform:
  m_ObjectHideFlags: 1
  m_PrefabParentObject: {fileID: 0}
  m_PrefabInternal: {fileID: 100100000}
  m_GameObject: {fileID: 100038}
  m_LocalRotation: {x: -0.0000000065421437, y: 0.00000001389686, z: 0.19377434, w: 0.98104614}
  m_LocalPosition: {x: -0.12190452, y: 0.0000000047683715, z: 0}
  m_LocalScale: {x: 1.0000001, y: 1, z: 1}
  m_Children:
  - {fileID: 400034}
  m_Father: {fileID: 400038}
  m_RootOrder: 0
--- !u!4 &400038
Transform:
  m_ObjectHideFlags: 1
  m_PrefabParentObject: {fileID: 0}
  m_PrefabInternal: {fileID: 100100000}
  m_GameObject: {fileID: 100040}
  m_LocalRotation: {x: 0.07112346, y: -0.55706924, z: -0.032159768, w: 0.8267896}
  m_LocalPosition: {x: -0.065831326, y: 0, z: 0}
  m_LocalScale: {x: 1.0000001, y: 1.0000002, z: 1.0000001}
  m_Children:
  - {fileID: 400036}
  m_Father: {fileID: 400044}
  m_RootOrder: 0
--- !u!4 &400040
Transform:
  m_ObjectHideFlags: 1
  m_PrefabParentObject: {fileID: 0}
  m_PrefabInternal: {fileID: 100100000}
  m_GameObject: {fileID: 100044}
  m_LocalRotation: {x: -3.5527133e-15, y: 0, z: -0, w: 1}
  m_LocalPosition: {x: -0.08213592, y: 0, z: 0}
  m_LocalScale: {x: 1.0000001, y: 1.0000001, z: 1}
  m_Children: []
  m_Father: {fileID: 400046}
  m_RootOrder: 0
--- !u!4 &400042
Transform:
  m_ObjectHideFlags: 1
  m_PrefabParentObject: {fileID: 0}
  m_PrefabInternal: {fileID: 100100000}
  m_GameObject: {fileID: 100020}
  m_LocalRotation: {x: 0.6106594, y: 0.20206577, z: 0.7639406, w: -0.051568814}
  m_LocalPosition: {x: -0.0040185163, y: 0.006646242, z: -0.012232983}
  m_LocalScale: {x: 1.0000001, y: 1.0000002, z: 1.0000001}
  m_Children:
  - {fileID: 400018}
  m_Father: {fileID: 400048}
  m_RootOrder: 2
--- !u!4 &400044
Transform:
  m_ObjectHideFlags: 1
  m_PrefabParentObject: {fileID: 0}
  m_PrefabInternal: {fileID: 100100000}
  m_GameObject: {fileID: 100042}
  m_LocalRotation: {x: -0.6106596, y: -0.20206788, z: 0.76394004, w: -0.051567104}
  m_LocalPosition: {x: -0.0040185163, y: 0.0066461754, z: 0.012233019}
  m_LocalScale: {x: 1.0000001, y: 1.0000002, z: 1.0000001}
  m_Children:
  - {fileID: 400038}
  m_Father: {fileID: 400048}
  m_RootOrder: 1
--- !u!4 &400046
Transform:
  m_ObjectHideFlags: 1
  m_PrefabParentObject: {fileID: 0}
  m_PrefabInternal: {fileID: 100100000}
  m_GameObject: {fileID: 100046}
  m_LocalRotation: {x: 1.7803782e-14, y: -0.00000045245946, z: 0.16313143, w: 0.98660433}
  m_LocalPosition: {x: -0.026213646, y: 0, z: 0}
  m_LocalScale: {x: 1.0000002, y: 1.0000004, z: 1.0000001}
  m_Children:
  - {fileID: 400040}
  m_Father: {fileID: 400048}
  m_RootOrder: 0
--- !u!4 &400048
Transform:
  m_ObjectHideFlags: 1
  m_PrefabParentObject: {fileID: 0}
  m_PrefabInternal: {fileID: 100100000}
  m_GameObject: {fileID: 100048}
  m_LocalRotation: {x: -1.3104086e-13, y: 0.00000047162413, z: -0.1700404, w: 0.9854371}
  m_LocalPosition: {x: -0.090880774, y: -0.0000196743, z: -5.4569682e-11}
  m_LocalScale: {x: 1, y: 0.9999999, z: 0.99999994}
  m_Children:
  - {fileID: 400046}
  - {fileID: 400044}
  - {fileID: 400042}
  m_Father: {fileID: 400070}
  m_RootOrder: 0
--- !u!4 &400050
Transform:
  m_ObjectHideFlags: 1
  m_PrefabParentObject: {fileID: 0}
  m_PrefabInternal: {fileID: 100100000}
  m_GameObject: {fileID: 100052}
  m_LocalRotation: {x: -1.697032e-30, y: 9.553441e-16, z: 1.776357e-15, w: 1}
  m_LocalPosition: {x: -0.011826019, y: -7.4505804e-11, z: 0}
  m_LocalScale: {x: 0.99999994, y: 1, z: 0.99999994}
  m_Children: []
  m_Father: {fileID: 400052}
  m_RootOrder: 0
--- !u!4 &400052
Transform:
  m_ObjectHideFlags: 1
  m_PrefabParentObject: {fileID: 0}
  m_PrefabInternal: {fileID: 100100000}
  m_GameObject: {fileID: 100054}
  m_LocalRotation: {x: -1.697032e-30, y: 9.553441e-16, z: 1.776357e-15, w: 1}
  m_LocalPosition: {x: -0.01910724, y: 7.4505804e-11, z: 0}
  m_LocalScale: {x: 0.99999994, y: 1, z: 0.99999994}
  m_Children:
  - {fileID: 400050}
  m_Father: {fileID: 400054}
  m_RootOrder: 0
--- !u!4 &400054
Transform:
  m_ObjectHideFlags: 1
  m_PrefabParentObject: {fileID: 0}
  m_PrefabInternal: {fileID: 100100000}
  m_GameObject: {fileID: 100056}
  m_LocalRotation: {x: 0.000000015454312, y: -0.000000015454312, z: -0.7071068, w: 0.7071068}
  m_LocalPosition: {x: -0.040194176, y: 0.032097023, z: 0}
  m_LocalScale: {x: 0.99999994, y: 1, z: 0.99999994}
  m_Children:
  - {fileID: 400052}
  m_Father: {fileID: 400056}
  m_RootOrder: 0
--- !u!4 &400056
Transform:
  m_ObjectHideFlags: 1
  m_PrefabParentObject: {fileID: 0}
  m_PrefabInternal: {fileID: 100100000}
  m_GameObject: {fileID: 100058}
  m_LocalRotation: {x: -0.00042625444, y: -0.016417455, z: -0.062604494, w: 0.9979033}
  m_LocalPosition: {x: -0.18509085, y: 0, z: 0.0000000047683715}
  m_LocalScale: {x: 1, y: 1, z: 1}
  m_Children:
  - {fileID: 400054}
  m_Father: {fileID: 400058}
  m_RootOrder: 0
--- !u!4 &400058
Transform:
  m_ObjectHideFlags: 1
  m_PrefabParentObject: {fileID: 0}
  m_PrefabInternal: {fileID: 100100000}
  m_GameObject: {fileID: 100060}
  m_LocalRotation: {x: -3.9134784e-10, y: 0.0000000018358931, z: 0.085561655, w: 0.9963329}
  m_LocalPosition: {x: -0.19823629, y: 0.0000000011920929, z: -0.0000000047683715}
  m_LocalScale: {x: 1.0000001, y: 0.9999999, z: 1}
  m_Children:
  - {fileID: 400056}
  m_Father: {fileID: 400072}
  m_RootOrder: 0
--- !u!4 &400060
Transform:
  m_ObjectHideFlags: 1
  m_PrefabParentObject: {fileID: 0}
  m_PrefabInternal: {fileID: 100100000}
  m_GameObject: {fileID: 100064}
  m_LocalRotation: {x: -9.553415e-16, y: -1.755525e-30, z: 1, w: -1.8375893e-15}
  m_LocalPosition: {x: -0.011826019, y: -7.4505804e-11, z: 0}
  m_LocalScale: {x: -0.99999994, y: -1, z: -0.99999994}
  m_Children: []
  m_Father: {fileID: 400062}
  m_RootOrder: 0
--- !u!4 &400062
Transform:
  m_ObjectHideFlags: 1
  m_PrefabParentObject: {fileID: 0}
  m_PrefabInternal: {fileID: 100100000}
  m_GameObject: {fileID: 100066}
  m_LocalRotation: {x: 1.6970273e-30, y: -9.553415e-16, z: 1.776357e-15, w: 1}
  m_LocalPosition: {x: -0.01910724, y: 7.4505804e-11, z: 0}
  m_LocalScale: {x: 0.99999994, y: 1, z: 0.99999994}
  m_Children:
  - {fileID: 400060}
  m_Father: {fileID: 400064}
  m_RootOrder: 0
--- !u!4 &400064
Transform:
  m_ObjectHideFlags: 1
  m_PrefabParentObject: {fileID: 0}
  m_PrefabInternal: {fileID: 100100000}
  m_GameObject: {fileID: 100068}
  m_LocalRotation: {x: -0.000000015454312, y: 0.000000015454312, z: -0.7071068, w: 0.7071068}
  m_LocalPosition: {x: -0.040194176, y: 0.032097023, z: 0}
  m_LocalScale: {x: 0.99999994, y: 1, z: 0.99999994}
  m_Children:
  - {fileID: 400062}
  m_Father: {fileID: 400066}
  m_RootOrder: 0
--- !u!4 &400066
Transform:
  m_ObjectHideFlags: 1
  m_PrefabParentObject: {fileID: 0}
  m_PrefabInternal: {fileID: 100100000}
  m_GameObject: {fileID: 100070}
  m_LocalRotation: {x: 0.00042624885, y: 0.016417367, z: -0.062604494, w: 0.9979033}
  m_LocalPosition: {x: -0.18509085, y: -0.0000000023841857, z: 0}
  m_LocalScale: {x: 1, y: 1, z: 1}
  m_Children:
  - {fileID: 400064}
  m_Father: {fileID: 400068}
  m_RootOrder: 0
--- !u!4 &400068
Transform:
  m_ObjectHideFlags: 1
  m_PrefabParentObject: {fileID: 0}
  m_PrefabInternal: {fileID: 100100000}
  m_GameObject: {fileID: 100072}
  m_LocalRotation: {x: 8.5530155e-10, y: -0.0000000017960504, z: 0.08556166, w: 0.9963329}
  m_LocalPosition: {x: -0.19823629, y: 0, z: 0}
  m_LocalScale: {x: 1, y: 0.9999999, z: 1}
  m_Children:
  - {fileID: 400066}
  m_Father: {fileID: 400074}
  m_RootOrder: 0
--- !u!4 &400070
Transform:
  m_ObjectHideFlags: 1
  m_PrefabParentObject: {fileID: 0}
  m_PrefabInternal: {fileID: 100100000}
  m_GameObject: {fileID: 100050}
  m_LocalRotation: {x: -4.5981055e-14, y: -0.00000011889509, z: 0.0428667, w: 0.99908084}
  m_LocalPosition: {x: -0.090867616, y: -0.00007209182, z: -1.9995468e-10}
  m_LocalScale: {x: 1, y: 1, z: 1}
  m_Children:
  - {fileID: 400048}
  m_Father: {fileID: 400076}
  m_RootOrder: 2
--- !u!4 &400072
Transform:
  m_ObjectHideFlags: 1
  m_PrefabParentObject: {fileID: 0}
  m_PrefabInternal: {fileID: 100100000}
  m_GameObject: {fileID: 100062}
  m_LocalRotation: {x: -0.008519378, y: 0.9998289, z: 0.0012188645, w: -0.016377788}
  m_LocalPosition: {x: 0.040177267, y: -0.0010923445, z: -0.039767593}
  m_LocalScale: {x: 1, y: 1.0000001, z: 1.0000001}
  m_Children:
  - {fileID: 400058}
  m_Father: {fileID: 400076}
  m_RootOrder: 1
--- !u!4 &400074
Transform:
  m_ObjectHideFlags: 1
  m_PrefabParentObject: {fileID: 0}
  m_PrefabInternal: {fileID: 100100000}
  m_GameObject: {fileID: 100074}
  m_LocalRotation: {x: -0.008519333, y: 0.9998289, z: -0.0012160881, w: 0.016377723}
  m_LocalPosition: {x: 0.040177267, y: -0.001092565, z: 0.03976759}
  m_LocalScale: {x: 1, y: 1, z: 1}
  m_Children:
  - {fileID: 400068}
  m_Father: {fileID: 400076}
  m_RootOrder: 0
--- !u!4 &400076
Transform:
  m_ObjectHideFlags: 1
  m_PrefabParentObject: {fileID: 0}
  m_PrefabInternal: {fileID: 100100000}
  m_GameObject: {fileID: 100076}
  m_LocalRotation: {x: -0.0000020699335, y: 0.0000006832789, z: 0.014491354, w: 0.99989504}
  m_LocalPosition: {x: -0.04019203, y: -0.000072309194, z: 0.000000055838573}
  m_LocalScale: {x: 1, y: 0.99999994, z: 0.99999994}
  m_Children:
  - {fileID: 400074}
  - {fileID: 400072}
  - {fileID: 400070}
  m_Father: {fileID: 400078}
  m_RootOrder: 0
--- !u!4 &400078
Transform:
  m_ObjectHideFlags: 1
  m_PrefabParentObject: {fileID: 0}
  m_PrefabInternal: {fileID: 100100000}
  m_GameObject: {fileID: 100078}
  m_LocalRotation: {x: -0.49999964, y: 0.50000036, z: 0.49999964, w: 0.50000036}
  m_LocalPosition: {x: -0.005560721, y: 2.8421708e-15, z: 0}
  m_LocalScale: {x: 1, y: 0.99999994, z: 0.99999994}
  m_Children:
  - {fileID: 400076}
  m_Father: {fileID: 400082}
  m_RootOrder: 0
--- !u!4 &400080
Transform:
  m_ObjectHideFlags: 1
  m_PrefabParentObject: {fileID: 0}
  m_PrefabInternal: {fileID: 100100000}
  m_GameObject: {fileID: 100080}
  m_LocalRotation: {x: 0.48935252, y: -0.48935252, z: -0.51042545, w: 0.51042545}
  m_LocalPosition: {x: 0.00020608299, y: -0.0025532355, z: -0.083396815}
  m_LocalScale: {x: 2.54, y: 2.5399997, z: 2.5399995}
  m_Children: []
  m_Father: {fileID: 400084}
  m_RootOrder: 1
--- !u!4 &400082
Transform:
  m_ObjectHideFlags: 1
  m_PrefabParentObject: {fileID: 0}
  m_PrefabInternal: {fileID: 100100000}
  m_GameObject: {fileID: 100082}
  m_LocalRotation: {x: -0.5, y: 0.5, z: 0.5, w: 0.5}
  m_LocalPosition: {x: 0.000000019363014, y: 1.0683507, z: -0.014124231}
  m_LocalScale: {x: 2.5399997, y: 2.5399997, z: 2.54}
  m_Children:
  - {fileID: 400078}
  m_Father: {fileID: 400084}
  m_RootOrder: 0
--- !u!4 &400084
Transform:
  m_ObjectHideFlags: 1
  m_PrefabParentObject: {fileID: 0}
  m_PrefabInternal: {fileID: 100100000}
  m_GameObject: {fileID: 100084}
  m_LocalRotation: {x: 0, y: 0, z: 0, w: 1}
  m_LocalPosition: {x: 0, y: 0, z: 0}
  m_LocalScale: {x: 1, y: 1, z: 1}
  m_Children:
  - {fileID: 400082}
  - {fileID: 400080}
  m_Father: {fileID: 400000}
  m_RootOrder: 1
--- !u!4 &400086
Transform:
  m_ObjectHideFlags: 1
  m_PrefabParentObject: {fileID: 0}
  m_PrefabInternal: {fileID: 100100000}
  m_GameObject: {fileID: 100086}
  m_LocalRotation: {x: 0.7071068, y: 0, z: 0, w: 0.7071068}
  m_LocalPosition: {x: 0, y: 3.1267014, z: 0}
  m_LocalScale: {x: 1, y: 1, z: 1}
  m_Children: []
  m_Father: {fileID: 400000}
  m_RootOrder: 3
--- !u!4 &400112
Transform:
  m_ObjectHideFlags: 1
  m_PrefabParentObject: {fileID: 0}
  m_PrefabInternal: {fileID: 100100000}
  m_GameObject: {fileID: 100112}
  m_LocalRotation: {x: 0, y: 0, z: 0, w: 1}
  m_LocalPosition: {x: 10.896937, y: 0, z: 60.580734}
  m_LocalScale: {x: 1, y: 1, z: 1}
  m_Children: []
  m_Father: {fileID: 400000}
  m_RootOrder: 2
--- !u!4 &400116
Transform:
  m_ObjectHideFlags: 1
  m_PrefabParentObject: {fileID: 0}
  m_PrefabInternal: {fileID: 100100000}
  m_GameObject: {fileID: 100116}
  m_LocalRotation: {x: 0, y: 0, z: 0, w: 1}
  m_LocalPosition: {x: 0, y: 0, z: 0}
  m_LocalScale: {x: 1, y: 1, z: 1}
  m_Children: []
  m_Father: {fileID: 400000}
  m_RootOrder: 0
--- !u!23 &2300000
MeshRenderer:
  m_ObjectHideFlags: 1
  m_PrefabParentObject: {fileID: 0}
  m_PrefabInternal: {fileID: 100100000}
  m_GameObject: {fileID: 100022}
  m_Enabled: 1
  m_CastShadows: 1
  m_ReceiveShadows: 1
  m_Materials:
  - {fileID: 2100000, guid: 3db097c45eea0324896af81ea9d6b29e, type: 2}
  m_SubsetIndices: 
  m_StaticBatchRoot: {fileID: 0}
  m_UseLightProbes: 0
  m_ReflectionProbeUsage: 1
  m_ProbeAnchor: {fileID: 0}
  m_ScaleInLightmap: 1
  m_PreserveUVs: 0
  m_IgnoreNormalsForChartDetection: 0
  m_ImportantGI: 0
  m_MinimumChartSize: 4
  m_AutoUVMaxDistance: 0.5
  m_AutoUVMaxAngle: 89
  m_LightmapParameters: {fileID: 0}
  m_SortingLayerID: 0
  m_SortingOrder: 0
--- !u!33 &3300000
MeshFilter:
  m_ObjectHideFlags: 1
  m_PrefabParentObject: {fileID: 0}
  m_PrefabInternal: {fileID: 100100000}
  m_GameObject: {fileID: 100022}
  m_Mesh: {fileID: 4300004, guid: 99bfa0a722dc9ee4992249b5c2815167, type: 3}
--- !u!95 &9500000
Animator:
  serializedVersion: 3
  m_ObjectHideFlags: 1
  m_PrefabParentObject: {fileID: 0}
  m_PrefabInternal: {fileID: 100100000}
  m_GameObject: {fileID: 100000}
  m_Enabled: 1
  m_Avatar: {fileID: 9000000, guid: 99bfa0a722dc9ee4992249b5c2815167, type: 3}
  m_Controller: {fileID: 9100000, guid: 026ace8bc44f767498e9e5db5bd63bdb, type: 2}
  m_CullingMode: 1
  m_UpdateMode: 0
  m_ApplyRootMotion: 1
  m_LinearVelocityBlending: 0
  m_WarningMessage: 
  m_HasTransformHierarchy: 1
  m_AllowConstantClipSamplingOptimization: 1
--- !u!114 &11400000
MonoBehaviour:
  m_ObjectHideFlags: 1
  m_PrefabParentObject: {fileID: 0}
  m_PrefabInternal: {fileID: 100100000}
  m_GameObject: {fileID: 100112}
  m_Enabled: 1
  m_EditorHideFlags: 0
  m_Script: {fileID: 11500000, guid: 6622b13f334cef643b96373de48409ca, type: 3}
  m_Name: 
  m_EditorClassIdentifier: 
  saveId: -1
  isEnabled: 1
  name: Attack
  triggers: []
  ownsObjectFinder: 0
  objectFinder:
    useCustomTags: 0
    tags:
    - Player
    cachePoint: 0
  movementSpeed: 1
  rotationSpeed: 90
  animationStatesComponent: {fileID: 0}
  animationStates:
  - {fileID: 0}
  audioClip: {fileID: 0}
  audioVolume: 1
  audioPitch: 1
  audioPitchRandomness: 0
  loopAudio: 0
  cooldownTime: 0
  initResetsCooldown: 1
  switchStateIfStillCoolingDown: 0
  stillCoolingDownState: {fileID: 0}
  hasCooldownLimit: 0
  cooldownLimit: 3
  cooldownLimitExceededState: {fileID: 0}
  attackDamage: 10
  findVisibleTargetsOnly: 1
  attackAnimName: 
  attackPoint: 0.5
  animAttackTime: 0
  inheritPreviousStateMovement: 0
  scriptWithAttackMethod: {fileID: 0}
  methodName: 
  attacksBeforeReload: 10
  attackCount: 0
  reloadState: {fileID: 0}
  mecanimLayerIndex: 0
--- !u!114 &11400002
MonoBehaviour:
  m_ObjectHideFlags: 1
  m_PrefabParentObject: {fileID: 0}
  m_PrefabInternal: {fileID: 100100000}
  m_GameObject: {fileID: 100000}
  m_Enabled: 1
  m_EditorHideFlags: 0
  m_Script: {fileID: 11500000, guid: 9b89cd0db4acb46c08d1c6b1849a5d9f, type: 3}
  m_Name: 
  m_EditorClassIdentifier: 
  mecanimAnimator: {fileID: 0}
  speedVariable: Speed
  directionVariable: Direction
  rotationLerpRate: 5
  minDistanceMoveThreshold: 3
--- !u!114 &11400004
MonoBehaviour:
  m_ObjectHideFlags: 1
  m_PrefabParentObject: {fileID: 0}
  m_PrefabInternal: {fileID: 100100000}
  m_GameObject: {fileID: 100112}
  m_Enabled: 1
  m_EditorHideFlags: 0
  m_Script: {fileID: 11500000, guid: c20ce2bc1734da140af811b5f1ba10a0, type: 3}
  m_Name: 
  m_EditorClassIdentifier: 
  saveId: -1
  isEnabled: 1
  name: Help
  triggers:
  - {fileID: 11400026}
  ownsObjectFinder: 0
  objectFinder:
    useCustomTags: 0
    tags:
    - Player
    cachePoint: 0
  movementSpeed: 2
  rotationSpeed: 1
  animationStatesComponent: {fileID: 11400038}
  animationStates:
  - {fileID: 0}
  audioClip: {fileID: 0}
  audioVolume: 1
  audioPitch: 1
  audioPitchRandomness: 0
  loopAudio: 0
  withinHelpPointDistance: 10
  helpPoint: {x: 0, y: 0, z: 0}
  helpPointReachedState: {fileID: 11400024}
--- !u!114 &11400006
MonoBehaviour:
  m_ObjectHideFlags: 1
  m_PrefabParentObject: {fileID: 0}
  m_PrefabInternal: {fileID: 100100000}
  m_GameObject: {fileID: 100112}
  m_Enabled: 1
  m_EditorHideFlags: 0
  m_Script: {fileID: 11500000, guid: 66e16c48c66fdd14b976ec4366310b06, type: 3}
  m_Name: 
  m_EditorClassIdentifier: 
  saveId: -1
  transitionState: {fileID: 11400024}
  parentTrigger: {fileID: 0}
  subTriggers: []
  ownsObjectFinder: 0
  objectFinder:
    useCustomTags: 0
    tags:
    - Player
    cachePoint: 0
  invertResult: 0
  distanceThreshold: 10
  negotiationMode: 0
--- !u!114 &11400008
MonoBehaviour:
  m_ObjectHideFlags: 1
  m_PrefabParentObject: {fileID: 0}
  m_PrefabInternal: {fileID: 100100000}
  m_GameObject: {fileID: 100000}
  m_Enabled: 1
  m_EditorHideFlags: 0
  m_Script: {fileID: 11500000, guid: 2e0b2a50ebadf4e49911e0565e412e4f, type: 3}
  m_Name: 
  m_EditorClassIdentifier: 
  distanceFalloff: 15
--- !u!114 &11400010
MonoBehaviour:
  m_ObjectHideFlags: 1
  m_PrefabParentObject: {fileID: 0}
  m_PrefabInternal: {fileID: 100100000}
  m_GameObject: {fileID: 100116}
  m_Enabled: 1
  m_EditorHideFlags: 0
  m_Script: {fileID: 11500000, guid: 5d8f81bc193daf543bf6a41cdb398b33, type: 3}
  m_Name: 
  m_EditorClassIdentifier: 
  name: Run
  startFrame: 0
  endFrame: 0
  speed: 1
  animationWrapMode: 2
  crossFadeIn: 1
  crossFadeOut: 0
  transitionTime: 0.2
  foldoutOpen: 1
--- !u!114 &11400012
MonoBehaviour:
  m_ObjectHideFlags: 1
  m_PrefabParentObject: {fileID: 0}
  m_PrefabInternal: {fileID: 100100000}
  m_GameObject: {fileID: 100112}
  m_Enabled: 1
  m_EditorHideFlags: 0
  m_Script: {fileID: 11500000, guid: 6622b13f334cef643b96373de48409ca, type: 3}
  m_Name: 
  m_EditorClassIdentifier: 
  saveId: -1
  isEnabled: 1
  name: Attack
  triggers:
  - {fileID: 11400018}
  ownsObjectFinder: 0
  objectFinder:
    useCustomTags: 0
    tags:
    - Player
    cachePoint: 0
  movementSpeed: 0
  rotationSpeed: 0
  animationStatesComponent: {fileID: 11400038}
  animationStates:
  - {fileID: 11400040}
  audioClip: {fileID: 0}
  audioVolume: 1
  audioPitch: 1
  audioPitchRandomness: 0
  loopAudio: 0
  cooldownTime: 0
  initResetsCooldown: 1
  switchStateIfStillCoolingDown: 0
  stillCoolingDownState: {fileID: 0}
  hasCooldownLimit: 0
  cooldownLimit: 3
  cooldownLimitExceededState: {fileID: 0}
  attackDamage: 10
  findVisibleTargetsOnly: 1
  attackAnimName: Attack
  attackPoint: 0.5
  animAttackTime: 0
  inheritPreviousStateMovement: 0
  scriptWithAttackMethod: {fileID: 0}
  methodName: 
  attacksBeforeReload: 10
  attackCount: 0
  reloadState: {fileID: 11400012}
  mecanimLayerIndex: 0
--- !u!114 &11400014
MonoBehaviour:
  m_ObjectHideFlags: 1
  m_PrefabParentObject: {fileID: 0}
  m_PrefabInternal: {fileID: 100100000}
  m_GameObject: {fileID: 100112}
  m_Enabled: 1
  m_EditorHideFlags: 0
  m_Script: {fileID: 11500000, guid: 4fbea14a4b5b21f46b024b2508e9e205, type: 3}
  m_Name: 
  m_EditorClassIdentifier: 
  saveId: -1
  transitionState: {fileID: 11400030}
  parentTrigger: {fileID: 0}
  subTriggers: []
  ownsObjectFinder: 0
  objectFinder:
    useCustomTags: 0
    tags:
    - Player
    cachePoint: 0
  invertResult: 0
  duration: 5
  plusOrMinusDuration: 0
  timerResetMode: 0
--- !u!114 &11400016
MonoBehaviour:
  m_ObjectHideFlags: 1
  m_PrefabParentObject: {fileID: 0}
  m_PrefabInternal: {fileID: 100100000}
  m_GameObject: {fileID: 100112}
  m_Enabled: 1
  m_EditorHideFlags: 0
  m_Script: {fileID: 11500000, guid: 4fbea14a4b5b21f46b024b2508e9e205, type: 3}
  m_Name: 
  m_EditorClassIdentifier: 
  saveId: -1
  transitionState: {fileID: 11400012}
  parentTrigger: {fileID: 0}
  subTriggers: []
  ownsObjectFinder: 0
  objectFinder:
    useCustomTags: 0
    tags:
    - Player
    cachePoint: 0
  invertResult: 0
  duration: 5
  plusOrMinusDuration: 0
  timerResetMode: 0
--- !u!114 &11400018
MonoBehaviour:
  m_ObjectHideFlags: 1
  m_PrefabParentObject: {fileID: 0}
  m_PrefabInternal: {fileID: 100100000}
  m_GameObject: {fileID: 100112}
  m_Enabled: 1
  m_EditorHideFlags: 0
  m_Script: {fileID: 11500000, guid: 4fbea14a4b5b21f46b024b2508e9e205, type: 3}
  m_Name: 
  m_EditorClassIdentifier: 
  saveId: -1
  transitionState: {fileID: 0}
  parentTrigger: {fileID: 0}
  subTriggers: []
  ownsObjectFinder: 0
  objectFinder:
    useCustomTags: 0
    tags:
    - Player
    cachePoint: 0
  invertResult: 0
  duration: 1.6
  plusOrMinusDuration: 0
  timerResetMode: 0
--- !u!114 &11400020
MonoBehaviour:
  m_ObjectHideFlags: 1
  m_PrefabParentObject: {fileID: 0}
  m_PrefabInternal: {fileID: 100100000}
  m_GameObject: {fileID: 100112}
  m_Enabled: 1
  m_EditorHideFlags: 0
  m_Script: {fileID: 11500000, guid: 6388ad840b5a7bd4f8916a5c0a82c013, type: 3}
  m_Name: 
  m_EditorClassIdentifier: 
  saveId: -1
  transitionState: {fileID: 0}
  parentTrigger: {fileID: 0}
  subTriggers: []
  ownsObjectFinder: 0
  objectFinder:
    useCustomTags: 0
    tags:
    - Player
    cachePoint: 0
  invertResult: 0
  states: []
  weights: []
--- !u!114 &11400022
MonoBehaviour:
  m_ObjectHideFlags: 1
  m_PrefabParentObject: {fileID: 0}
  m_PrefabInternal: {fileID: 100100000}
  m_GameObject: {fileID: 100112}
  m_Enabled: 1
  m_EditorHideFlags: 0
  m_Script: {fileID: 11500000, guid: 25c46824ce97acd4d85d11318b8821d9, type: 3}
  m_Name: 
  m_EditorClassIdentifier: 
  saveId: -1
  transitionState: {fileID: 11400032}
  parentTrigger: {fileID: 0}
  subTriggers: []
  ownsObjectFinder: 0
  objectFinder:
    useCustomTags: 0
    tags:
    - Player
    cachePoint: 0
  invertResult: 0
  distanceThreshold: 1
  negotiationMode: 0
--- !u!114 &11400024
MonoBehaviour:
  m_ObjectHideFlags: 1
  m_PrefabParentObject: {fileID: 0}
  m_PrefabInternal: {fileID: 100100000}
  m_GameObject: {fileID: 100112}
  m_Enabled: 1
  m_EditorHideFlags: 0
  m_Script: {fileID: 11500000, guid: 74e36a2ed7b7c0e48b576ef3933c15d3, type: 3}
  m_Name: 
  m_EditorClassIdentifier: 
  saveId: -1
  isEnabled: 1
  name: Seek
  triggers:
  - {fileID: 11400028}
  ownsObjectFinder: 0
  objectFinder:
    useCustomTags: 0
    tags:
    - Player
    cachePoint: 0
  movementSpeed: 2
  rotationSpeed: 1
  animationStatesComponent: {fileID: 11400038}
  animationStates:
  - {fileID: 11400114}
  audioClip: {fileID: 0}
  audioVolume: 1
  audioPitch: 1
  audioPitchRandomness: 0
  loopAudio: 0
  specifySeekTarget: 0
  seekItemsWithTag: Player
  seekTarget: {fileID: 0}
  seekTargetReachedState: {fileID: 11400032}
  noSeekTargetFoundState: {fileID: 0}
  distanceToTargetThreshold: 0.25
  destroyTargetWhenReached: 0
--- !u!114 &11400026
MonoBehaviour:
  m_ObjectHideFlags: 1
  m_PrefabParentObject: {fileID: 0}
  m_PrefabInternal: {fileID: 100100000}
  m_GameObject: {fileID: 100112}
  m_Enabled: 1
  m_EditorHideFlags: 0
  m_Script: {fileID: 11500000, guid: 4fbea14a4b5b21f46b024b2508e9e205, type: 3}
  m_Name: 
  m_EditorClassIdentifier: 
  saveId: -1
  transitionState: {fileID: 11400024}
  parentTrigger: {fileID: 0}
  subTriggers: []
  ownsObjectFinder: 0
  objectFinder:
    useCustomTags: 0
    tags:
    - Player
    cachePoint: 0
  invertResult: 0
  duration: 0
  plusOrMinusDuration: 0
  timerResetMode: 0
--- !u!114 &11400028
MonoBehaviour:
  m_ObjectHideFlags: 1
  m_PrefabParentObject: {fileID: 0}
  m_PrefabInternal: {fileID: 100100000}
  m_GameObject: {fileID: 100112}
  m_Enabled: 1
  m_EditorHideFlags: 0
  m_Script: {fileID: 11500000, guid: 66e16c48c66fdd14b976ec4366310b06, type: 3}
  m_Name: 
  m_EditorClassIdentifier: 
  saveId: -1
  transitionState: {fileID: 11400032}
  parentTrigger: {fileID: 0}
  subTriggers: []
  ownsObjectFinder: 0
  objectFinder:
    useCustomTags: 0
    tags:
    - Player
    cachePoint: 0
  invertResult: 0
  distanceThreshold: 10
  negotiationMode: 0
--- !u!114 &11400030
MonoBehaviour:
  m_ObjectHideFlags: 1
  m_PrefabParentObject: {fileID: 0}
  m_PrefabInternal: {fileID: 100100000}
  m_GameObject: {fileID: 100112}
  m_Enabled: 1
  m_EditorHideFlags: 0
  m_Script: {fileID: 11500000, guid: 497971381bcc6524889f21c87355b575, type: 3}
  m_Name: 
  m_EditorClassIdentifier: 
  saveId: -1
  isEnabled: 1
  name: Patrol
  triggers: []
  ownsObjectFinder: 0
  objectFinder:
    useCustomTags: 0
    tags:
    - Player
    cachePoint: 0
  movementSpeed: 1
  rotationSpeed: 1
  animationStatesComponent: {fileID: 11400038}
  animationStates:
  - {fileID: 11400114}
  audioClip: {fileID: 0}
  audioVolume: 1
  audioPitch: 1
  audioPitchRandomness: 0
  loopAudio: 0
  patrolPointsGroup: {fileID: 0}
  pointDistanceThreshold: 2
  useAccurateCornering: 0
  corneringError: 10
  patrolMode: 1
  continuePatrolMode: 3
  patrolEndedState: {fileID: 0}
--- !u!114 &11400032
MonoBehaviour:
  m_ObjectHideFlags: 1
  m_PrefabParentObject: {fileID: 0}
  m_PrefabInternal: {fileID: 100100000}
  m_GameObject: {fileID: 100112}
  m_Enabled: 1
  m_EditorHideFlags: 0
  m_Script: {fileID: 11500000, guid: b06fe4b26b5c2a840b112db99f0bb88a, type: 3}
  m_Name: 
  m_EditorClassIdentifier: 
  saveId: -1
  isEnabled: 1
  name: Idle
  triggers:
  - {fileID: 11400014}
  ownsObjectFinder: 0
  objectFinder:
    useCustomTags: 0
    tags:
    - Player
    cachePoint: 0
  movementSpeed: 1
  rotationSpeed: 1
  animationStatesComponent: {fileID: 11400038}
  animationStates:
  - {fileID: 11400042}
  audioClip: {fileID: 0}
  audioVolume: 1
  audioPitch: 1
  audioPitchRandomness: 0
  loopAudio: 0
  rotatesTowardTarget: 0
--- !u!114 &11400034
MonoBehaviour:
  m_ObjectHideFlags: 1
  m_PrefabParentObject: {fileID: 0}
  m_PrefabInternal: {fileID: 100100000}
  m_GameObject: {fileID: 100112}
  m_Enabled: 1
  m_EditorHideFlags: 0
  m_Script: {fileID: 11500000, guid: dbeb34e3c2d7b1e4393f45efa30538ea, type: 3}
  m_Name: 
  m_EditorClassIdentifier: 
  saveId: -1
  isEnabled: 1
  name: Demo Done
  triggers:
  - {fileID: 11400056}
  ownsObjectFinder: 0
  objectFinder:
    useCustomTags: 0
    tags:
    - Player
    cachePoint: 0
  movementSpeed: 1
  rotationSpeed: 1
  animationStatesComponent: {fileID: 11400038}
  animationStates:
  - {fileID: 11400042}
  audioClip: {fileID: 0}
  audioVolume: 1
  audioPitch: 1
  audioPitchRandomness: 0
  loopAudio: 0
  gameManager: {fileID: 0}
--- !u!114 &11400036
MonoBehaviour:
  m_ObjectHideFlags: 1
  m_PrefabParentObject: {fileID: 0}
  m_PrefabInternal: {fileID: 100100000}
  m_GameObject: {fileID: 100000}
  m_Enabled: 1
  m_EditorHideFlags: 0
  m_Script: {fileID: 11500000, guid: 84671ee1ae165634b995c5105e144092, type: 3}
  m_Name: 
  m_EditorClassIdentifier: 
  saveId: -1
  isDefending: 0
  damageMultiplier: 1
  useSightTransform: 0
  sightTransform: {fileID: 0}
  initialState: {fileID: 11400032}
  states:
  - {fileID: 11400032}
  - {fileID: 11400060}
  - {fileID: 11400030}
  - {fileID: 11400024}
  - {fileID: 11400012}
  - {fileID: 11400004}
  - {fileID: 11400034}
  - {fileID: 11400044}
  triggers:
  - {fileID: 11400046}
  objectFinder:
    useCustomTags: 0
    tags:
    - Player
    cachePoint: 0
  raycastLayers:
    serializedVersion: 2
    m_Bits: 4294966527
  useSightFalloff: 1
  sightFOV: 90
  sightDistance: 20
  eyePosition: {x: 0, y: 1.5, z: 0}
  keepAgentUpright: 1
  health: 100
  maxHealth: 100
  statesGameObject: {fileID: 100112}
  animationCallbackComponent: {fileID: 11400116}
  animationCallbackMethodName: OnAnimationState
  animationStates: {fileID: 0}
--- !u!114 &11400038
MonoBehaviour:
  m_ObjectHideFlags: 1
  m_PrefabParentObject: {fileID: 0}
  m_PrefabInternal: {fileID: 100100000}
  m_GameObject: {fileID: 100000}
  m_Enabled: 1
  m_EditorHideFlags: 0
  m_Script: {fileID: 11500000, guid: 9d50f8335b4b0714185228ef68705d76, type: 3}
  m_Name: 
  m_EditorClassIdentifier: 
  animationType: 0
  states:
  - {fileID: 11400042}
  - {fileID: 11400040}
  - {fileID: 11400114}
  - {fileID: 11400112}
  animationStatesGameObject: {fileID: 100116}
--- !u!114 &11400040
MonoBehaviour:
  m_ObjectHideFlags: 1
  m_PrefabParentObject: {fileID: 0}
  m_PrefabInternal: {fileID: 100100000}
  m_GameObject: {fileID: 100116}
  m_Enabled: 1
  m_EditorHideFlags: 0
  m_Script: {fileID: 11500000, guid: 5d8f81bc193daf543bf6a41cdb398b33, type: 3}
  m_Name: 
  m_EditorClassIdentifier: 
  name: Base Layer.Attack
  startFrame: 0
  endFrame: 0
  speed: 1
  animationWrapMode: 2
  crossFadeIn: 1
  crossFadeOut: 0
  transitionTime: 0.2
  foldoutOpen: 0
--- !u!114 &11400042
MonoBehaviour:
  m_ObjectHideFlags: 1
  m_PrefabParentObject: {fileID: 0}
  m_PrefabInternal: {fileID: 100100000}
  m_GameObject: {fileID: 100116}
  m_Enabled: 1
  m_EditorHideFlags: 0
  m_Script: {fileID: 11500000, guid: 5d8f81bc193daf543bf6a41cdb398b33, type: 3}
  m_Name: 
  m_EditorClassIdentifier: 
  name: Base Layer.Idle
  startFrame: 0
  endFrame: 0
  speed: 1
  animationWrapMode: 2
  crossFadeIn: 0
  crossFadeOut: 0
  transitionTime: 0.2
  foldoutOpen: 0
--- !u!114 &11400044
MonoBehaviour:
  m_ObjectHideFlags: 1
  m_PrefabParentObject: {fileID: 0}
  m_PrefabInternal: {fileID: 100100000}
  m_GameObject: {fileID: 100112}
  m_Enabled: 1
  m_EditorHideFlags: 0
  m_Script: {fileID: 11500000, guid: b06fe4b26b5c2a840b112db99f0bb88a, type: 3}
  m_Name: 
  m_EditorClassIdentifier: 
  saveId: -1
  isEnabled: 1
  name: Done Idle
  triggers: []
  ownsObjectFinder: 0
  objectFinder:
    useCustomTags: 0
    tags:
    - Player
    cachePoint: 0
  movementSpeed: 1
  rotationSpeed: 1
  animationStatesComponent: {fileID: 11400038}
  animationStates:
  - {fileID: 11400042}
  audioClip: {fileID: 0}
  audioVolume: 1
  audioPitch: 1
  audioPitchRandomness: 0
  loopAudio: 0
  rotatesTowardTarget: 0
--- !u!114 &11400046
MonoBehaviour:
  m_ObjectHideFlags: 1
  m_PrefabParentObject: {fileID: 0}
  m_PrefabInternal: {fileID: 100100000}
  m_GameObject: {fileID: 100112}
  m_Enabled: 1
  m_EditorHideFlags: 0
  m_Script: {fileID: 11500000, guid: e29f56ac49b709147995fa56e95e39e4, type: 3}
  m_Name: 
  m_EditorClassIdentifier: 
  saveId: -1
  transitionState: {fileID: 11400034}
  parentTrigger: {fileID: 0}
  subTriggers: []
  ownsObjectFinder: 0
  objectFinder:
    useCustomTags: 0
    tags:
    - Player
    cachePoint: 0
  invertResult: 0
  sightTransformOverride: {fileID: 0}
--- !u!114 &11400048
MonoBehaviour:
  m_ObjectHideFlags: 1
  m_PrefabParentObject: {fileID: 0}
  m_PrefabInternal: {fileID: 100100000}
  m_GameObject: {fileID: 100112}
  m_Enabled: 1
  m_EditorHideFlags: 0
  m_Script: {fileID: 11500000, guid: 25c46824ce97acd4d85d11318b8821d9, type: 3}
  m_Name: 
  m_EditorClassIdentifier: 
  saveId: -1
  transitionState: {fileID: 11400032}
  parentTrigger: {fileID: 0}
  subTriggers: []
  ownsObjectFinder: 0
  objectFinder:
    useCustomTags: 0
    tags:
    - Player
    cachePoint: 0
  invertResult: 0
  distanceThreshold: 1
  negotiationMode: 0
--- !u!114 &11400050
MonoBehaviour:
  m_ObjectHideFlags: 1
  m_PrefabParentObject: {fileID: 0}
  m_PrefabInternal: {fileID: 100100000}
  m_GameObject: {fileID: 100112}
  m_Enabled: 1
  m_EditorHideFlags: 0
  m_Script: {fileID: 11500000, guid: 25c46824ce97acd4d85d11318b8821d9, type: 3}
  m_Name: 
  m_EditorClassIdentifier: 
  saveId: -1
  transitionState: {fileID: 0}
  parentTrigger: {fileID: 0}
  subTriggers: []
  ownsObjectFinder: 0
  objectFinder:
    useCustomTags: 0
    tags:
    - Player
    cachePoint: 0
  invertResult: 0
  distanceThreshold: 1
  negotiationMode: 0
--- !u!114 &11400052
MonoBehaviour:
  m_ObjectHideFlags: 1
  m_PrefabParentObject: {fileID: 0}
  m_PrefabInternal: {fileID: 100100000}
  m_GameObject: {fileID: 100112}
  m_Enabled: 1
  m_EditorHideFlags: 0
  m_Script: {fileID: 11500000, guid: 25c46824ce97acd4d85d11318b8821d9, type: 3}
  m_Name: 
  m_EditorClassIdentifier: 
  saveId: -1
  transitionState: {fileID: 11400032}
  parentTrigger: {fileID: 0}
  subTriggers: []
  ownsObjectFinder: 0
  objectFinder:
    useCustomTags: 0
    tags:
    - Player
    cachePoint: 0
  invertResult: 0
  distanceThreshold: 1
  negotiationMode: 0
--- !u!114 &11400054
MonoBehaviour:
  m_ObjectHideFlags: 1
  m_PrefabParentObject: {fileID: 0}
  m_PrefabInternal: {fileID: 100100000}
  m_GameObject: {fileID: 100112}
  m_Enabled: 1
  m_EditorHideFlags: 0
  m_Script: {fileID: 11500000, guid: 25c46824ce97acd4d85d11318b8821d9, type: 3}
  m_Name: 
  m_EditorClassIdentifier: 
  saveId: -1
  transitionState: {fileID: 11400032}
  parentTrigger: {fileID: 0}
  subTriggers: []
  ownsObjectFinder: 0
  objectFinder:
    useCustomTags: 0
    tags:
    - Player
    cachePoint: 0
  invertResult: 0
  distanceThreshold: 1
  negotiationMode: 0
--- !u!114 &11400056
MonoBehaviour:
  m_ObjectHideFlags: 1
  m_PrefabParentObject: {fileID: 0}
  m_PrefabInternal: {fileID: 100100000}
  m_GameObject: {fileID: 100112}
  m_Enabled: 1
  m_EditorHideFlags: 0
  m_Script: {fileID: 11500000, guid: 4fbea14a4b5b21f46b024b2508e9e205, type: 3}
  m_Name: 
  m_EditorClassIdentifier: 
  saveId: -1
  transitionState: {fileID: 11400044}
  parentTrigger: {fileID: 0}
  subTriggers: []
  ownsObjectFinder: 0
  objectFinder:
    useCustomTags: 0
    tags:
    - Player
    cachePoint: 0
  invertResult: 0
  duration: 0
  plusOrMinusDuration: 0
  timerResetMode: 0
--- !u!114 &11400058
MonoBehaviour:
  m_ObjectHideFlags: 1
  m_PrefabParentObject: {fileID: 0}
  m_PrefabInternal: {fileID: 100100000}
  m_GameObject: {fileID: 100112}
  m_Enabled: 1
  m_EditorHideFlags: 0
  m_Script: {fileID: 11500000, guid: 25c46824ce97acd4d85d11318b8821d9, type: 3}
  m_Name: 
  m_EditorClassIdentifier: 
  saveId: -1
  transitionState: {fileID: 11400032}
  parentTrigger: {fileID: 0}
  subTriggers: []
  ownsObjectFinder: 0
  objectFinder:
    useCustomTags: 0
    tags:
    - Player
    cachePoint: 0
  invertResult: 0
  distanceThreshold: 1
  negotiationMode: 0
--- !u!114 &11400060
MonoBehaviour:
  m_ObjectHideFlags: 1
  m_PrefabParentObject: {fileID: 0}
  m_PrefabInternal: {fileID: 100100000}
  m_GameObject: {fileID: 100112}
  m_Enabled: 1
  m_EditorHideFlags: 0
  m_Script: {fileID: 11500000, guid: b06fe4b26b5c2a840b112db99f0bb88a, type: 3}
  m_Name: 
  m_EditorClassIdentifier: 
  saveId: -1
  isEnabled: 1
  name: Formation Idle
  triggers: []
  ownsObjectFinder: 0
  objectFinder:
    useCustomTags: 0
    tags:
    - Player
    cachePoint: 0
  movementSpeed: 1
  rotationSpeed: 1
  animationStatesComponent: {fileID: 11400038}
  animationStates:
  - {fileID: 0}
  audioClip: {fileID: 0}
  audioVolume: 1
  audioPitch: 1
  audioPitchRandomness: 0
  loopAudio: 0
  rotatesTowardTarget: 0
--- !u!114 &11400062
MonoBehaviour:
  m_ObjectHideFlags: 1
  m_PrefabParentObject: {fileID: 0}
  m_PrefabInternal: {fileID: 100100000}
  m_GameObject: {fileID: 100086}
  m_Enabled: 1
  m_EditorHideFlags: 0
  m_Script: {fileID: 11500000, guid: e935d1446c70dfa4aadd9ac786ca0644, type: 3}
  m_Name: 
  m_EditorClassIdentifier: 
--- !u!114 &11400112
MonoBehaviour:
  m_ObjectHideFlags: 1
  m_PrefabParentObject: {fileID: 0}
  m_PrefabInternal: {fileID: 100100000}
  m_GameObject: {fileID: 100116}
  m_Enabled: 1
  m_EditorHideFlags: 0
  m_Script: {fileID: 11500000, guid: 5d8f81bc193daf543bf6a41cdb398b33, type: 3}
  m_Name: 
  m_EditorClassIdentifier: 
  name: Base Layer.Run
  startFrame: 0
  endFrame: 0
  speed: 1
  animationWrapMode: 2
  crossFadeIn: 0
  crossFadeOut: 0
  transitionTime: 0.2
  foldoutOpen: 1
--- !u!114 &11400114
MonoBehaviour:
  m_ObjectHideFlags: 1
  m_PrefabParentObject: {fileID: 0}
  m_PrefabInternal: {fileID: 100100000}
  m_GameObject: {fileID: 100116}
  m_Enabled: 1
  m_EditorHideFlags: 0
  m_Script: {fileID: 11500000, guid: 5d8f81bc193daf543bf6a41cdb398b33, type: 3}
  m_Name: 
  m_EditorClassIdentifier: 
  name: Base Layer.Walk
  startFrame: 0
  endFrame: 0
  speed: 1
  animationWrapMode: 2
  crossFadeIn: 0
  crossFadeOut: 0
  transitionTime: 0.2
  foldoutOpen: 0
--- !u!114 &11400116
MonoBehaviour:
  m_ObjectHideFlags: 1
  m_PrefabParentObject: {fileID: 0}
  m_PrefabInternal: {fileID: 100100000}
  m_GameObject: {fileID: 100000}
  m_Enabled: 1
  m_EditorHideFlags: 0
  m_Script: {fileID: 11500000, guid: cd17a2941a0714fee81803dd70bf4979, type: 3}
  m_Name: 
  m_EditorClassIdentifier: 
--- !u!119 &11900000
Projector:
  m_ObjectHideFlags: 1
  m_PrefabParentObject: {fileID: 0}
  m_PrefabInternal: {fileID: 100100000}
  m_GameObject: {fileID: 100086}
  m_Enabled: 1
  serializedVersion: 2
  m_NearClipPlane: 0.1
  m_FarClipPlane: 100
  m_FieldOfView: 10
  m_AspectRatio: 1
  m_Orthographic: 1
  m_OrthographicSize: 10
  m_Material: {fileID: 2100000, guid: 52a1cf6eec0cc4f64bd6dfc9a3e8fe14, type: 2}
  m_IgnoreLayers:
    serializedVersion: 2
    m_Bits: 0
--- !u!137 &13700000
SkinnedMeshRenderer:
  m_ObjectHideFlags: 1
  m_PrefabParentObject: {fileID: 0}
  m_PrefabInternal: {fileID: 100100000}
  m_GameObject: {fileID: 100080}
  m_Enabled: 1
  m_CastShadows: 1
  m_ReceiveShadows: 1
  m_Materials:
  - {fileID: 2100000, guid: b46728e159d40db4a97b8cfc751962b6, type: 2}
  m_SubsetIndices: 
  m_StaticBatchRoot: {fileID: 0}
  m_UseLightProbes: 0
  m_ReflectionProbeUsage: 1
  m_ProbeAnchor: {fileID: 0}
  m_ScaleInLightmap: 1
  m_PreserveUVs: 0
  m_IgnoreNormalsForChartDetection: 0
  m_ImportantGI: 0
  m_MinimumChartSize: 4
  m_AutoUVMaxDistance: 0.5
  m_AutoUVMaxAngle: 89
  m_LightmapParameters: {fileID: 0}
  m_SortingLayerID: 0
  m_SortingOrder: 0
  serializedVersion: 2
  m_Quality: 0
  m_UpdateWhenOffscreen: 0
  m_Mesh: {fileID: 4300026, guid: 99bfa0a722dc9ee4992249b5c2815167, type: 3}
  m_Bones:
  - {fileID: 400078}
  - {fileID: 400074}
  - {fileID: 400082}
  - {fileID: 400076}
  - {fileID: 400072}
  - {fileID: 400034}
  - {fileID: 400022}
  - {fileID: 400030}
  - {fileID: 400026}
  - {fileID: 400024}
  - {fileID: 400032}
  - {fileID: 400020}
  - {fileID: 400014}
  - {fileID: 400008}
  - {fileID: 400006}
  - {fileID: 400012}
  - {fileID: 400004}
  - {fileID: 400010}
  - {fileID: 400002}
  - {fileID: 400016}
  - {fileID: 400036}
  - {fileID: 400018}
  - {fileID: 400070}
  - {fileID: 400062}
  - {fileID: 400064}
  - {fileID: 400066}
  - {fileID: 400038}
  - {fileID: 400052}
  - {fileID: 400054}
  - {fileID: 400056}
  - {fileID: 400058}
  - {fileID: 400068}
  - {fileID: 400044}
  - {fileID: 400046}
  - {fileID: 400042}
  - {fileID: 400048}
  - {fileID: 400040}
  m_BlendShapeWeights: []
  m_RootBone: {fileID: 400082}
  m_AABB:
    m_Center: {x: 0.019766115, y: -0.0016240552, z: -0.036945164}
    m_Extent: {x: 0.12191058, y: 0.19168079, z: 0.38470924}
  m_DirtyAABB: 0
--- !u!143 &14300000
CharacterController:
  m_ObjectHideFlags: 1
  m_PrefabParentObject: {fileID: 0}
  m_PrefabInternal: {fileID: 100100000}
  m_GameObject: {fileID: 100000}
  m_Material: {fileID: 0}
  m_IsTrigger: 0
  m_Enabled: 1
  serializedVersion: 2
  m_Height: 2
  m_Radius: 0.5
  m_SlopeLimit: 45
  m_StepOffset: 0.3
  m_SkinWidth: 0.08
  m_MinMoveDistance: 0
  m_Center: {x: 0, y: 1, z: 0}
--- !u!1001 &100100000
Prefab:
  m_ObjectHideFlags: 1
  serializedVersion: 2
  m_Modification:
    m_TransformParent: {fileID: 0}
    m_Modifications: []
    m_RemovedComponents: []
  m_ParentPrefab: {fileID: 0}
  m_RootGameObject: {fileID: 100000}
  m_IsPrefabParent: 1
